<?xml version="1.0" encoding="utf-8"?>
<!-- Generator: Adobe Illustrator 19.1.0, SVG Export Plug-In . SVG Version: 6.00 Build 0)  -->
<svg version="1.1" id="Layer_1" xmlns="http://www.w3.org/2000/svg" xmlns:xlink="http://www.w3.org/1999/xlink" x="0px" y="0px"
	 viewBox="-177 269 256 256" style="enable-background:new -177 269 256 256;" xml:space="preserve">
<style type="text/css">
	.st0{fill:#DFA22F;}
	.st1{fill:#3CB187;}
	.st2{fill:#CE1E5B;}
	.st3{fill:#392538;}
	.st4{fill:#BB242A;}
	.st5{fill:#72C5CD;}
	.st6{fill:#248C73;}
	.st7{fill:#62803A;}
</style>
<path class="st0" d="M-11,284.8c-3.9-12-16.8-18.5-28.7-14.6c-12,3.9-18.5,16.8-14.6,28.7L4.6,480.3c4,11.2,16.1,17.5,27.7,14.1
	c12.1-3.5,19.5-16.3,15.6-28.2C47.7,465.8-11,284.8-11,284.8"/>
<path class="st1" d="M-102.4,314.5c-3.9-12-16.8-18.5-28.7-14.6c-12,3.9-18.5,16.8-14.6,28.7L-86.8,510c4,11.2,16.1,17.5,27.7,14.1
	c12.1-3.5,19.5-16.3,15.6-28.2C-43.6,495.4-102.4,314.5-102.4,314.5"/>
<path class="st2" d="M63.2,435c12-3.9,18.5-16.8,14.6-28.7c-3.9-12-16.8-18.5-28.7-14.6l-181.4,58.9c-11.2,4-17.5,16.1-14.1,27.7
	c3.5,12.1,16.3,19.5,28.2,15.6C-117.8,493.8,63.2,435,63.2,435"/>
<path class="st3" d="M-94.5,486.3c11.8-3.8,27-8.8,43.3-14.1c-3.8-11.8-8.8-27-14.1-43.4l-43.4,14.1L-94.5,486.3"/>
<path class="st4" d="M-3.2,456.6c16.4-5.3,31.6-10.3,43.3-14.1c-3.8-11.8-8.8-27-14.1-43.4l-43.4,14.1L-3.2,456.6"/>
<path class="st5" d="M33.5,343.7c12-3.9,18.5-16.8,14.6-28.7c-3.9-12-16.8-18.5-28.7-14.6L-162,359.3c-11.2,4-17.5,16.1-14.1,27.7
	c3.5,12.1,16.3,19.5,28.2,15.6C-147.4,402.5,33.5,343.7,33.5,343.7"/>
<path class="st6" d="M-124.2,394.9c11.8-3.8,27-8.8,43.4-14.1c-5.3-16.4-10.3-31.6-14.1-43.4l-43.4,14.1L-124.2,394.9"/>
<path class="st7" d="M-32.8,365.3c16.4-5.3,31.6-10.3,43.4-14.1c-5.3-16.4-10.3-31.6-14.1-43.4l-43.4,14.1L-32.8,365.3"/>
</svg>
