<?xml version="1.0" encoding="utf-8"?>
<!-- Generator: Adobe Illustrator 20.0.0, SVG Export Plug-In . SVG Version: 6.00 Build 0)  -->
<svg version="1.1" id="Layer_1" xmlns="http://www.w3.org/2000/svg" xmlns:xlink="http://www.w3.org/1999/xlink" x="0px" y="0px"
	 viewBox="0 0 63.7 71.3" style="enable-background:new 0 0 63.7 71.3;" xml:space="preserve">
<style type="text/css">
	path{fill-rule:evenodd;clip-rule:evenodd;fill:#333;}
	.st1{fill:#e31837;}
</style>
<g id="_xEA74_">
	<g>
		<path class="st0 hover-red" d="M60.4,14.5c-2.2-2.2-4.8-3.3-7.9-3.3V3.7c0-1-0.4-1.8-1.1-2.6C50.7,0.4,49.8,0,48.8,0H15
			c-1,0-1.9,0.4-2.7,1.2c-0.8,0.7-1.2,1.6-1.2,2.6v7.5c-3.1,0-5.7,1.2-7.9,3.3C1.1,16.7,0,19.3,0,22.5V60c0,3.1,1.2,5.7,3.3,7.9
			c2.2,2.2,4.8,3.3,7.9,3.3h41.3c3.1,0,5.7-1.2,7.9-3.3c2.2-2.2,3.3-4.8,3.3-7.9V22.5C63.7,19.4,62.6,16.8,60.4,14.5z M18.7,7.6H45
			v18.7H18.7V7.6z M56.2,60c0,1.1-0.3,1.9-1.1,2.7c-0.8,0.7-1.7,1.1-2.7,1.1H11.2c-1.1,0-1.9-0.3-2.7-1.1c-0.7-0.8-1.1-1.7-1.1-2.7
			V39.3c1.7,1.3,3.6,2,5.7,2h37.4c2,0,3.9-0.7,5.6-2V60z M56.2,32c0,1.5-0.6,2.8-1.7,3.9c-1.1,1.1-2.4,1.7-4,1.7H13.2
			c-1.6,0-2.9-0.6-4-1.7C8,34.8,7.5,33.5,7.5,32v-9.5c0-1,0.3-1.9,1.1-2.6c0.8-0.7,1.7-1.1,2.7-1.1V30c0,1.1,0.4,1.9,1.2,2.7
			c0.8,0.7,1.7,1.1,2.7,1.1h33.8c1,0,1.9-0.4,2.6-1.1c0.7-0.7,1.1-1.6,1.1-2.7V18.8c1.1,0,1.9,0.4,2.7,1.1c0.7,0.7,1.1,1.6,1.1,2.6
			V32z"/>
	</g>
</g>
<g id="_xEA74__copy">
	<g>
		<path class="st1 hover-red" d="M24.4,15h15c1.2,0,1.8-0.7,1.8-1.9c0-1.2-0.6-1.9-1.8-1.9h-15c-0.6,0-1.1,0.2-1.4,0.6
			c-0.3,0.3-0.5,0.8-0.5,1.3c0,0.5,0.1,1,0.5,1.4C23.4,14.9,23.9,15,24.4,15z M46.4,53.1c-0.4-0.3-0.8-0.5-1.4-0.5H18.7
			c-1.2,0-1.8,0.6-1.8,1.8c0,1.2,0.6,1.8,1.8,1.8H45c1.2,0,1.9-0.6,1.9-1.8C46.9,53.9,46.8,53.4,46.4,53.1z M24.4,22.5h15
			c1.2,0,1.8-0.6,1.8-1.8c0-1.2-0.6-1.8-1.8-1.8h-15c-1.2,0-1.9,0.6-1.9,1.8c0,0.6,0.1,1,0.5,1.4C23.4,22.3,23.9,22.5,24.4,22.5z"/>
	</g>
</g>
</svg>
