{
    "name": "normal",
    "model": "c4.4xlarge",
    "cpu": "Intel Xeon E5-2666 v3",
    "vCPU": 16,
    "mem": "30 GiB",
    "storage": "EBS Only",
    "title":"Compute Optimized",
    "description":"C4 instances are the latest generation of Compute-optimized instances, featuring the highest performing processors and the lowest price/compute performance in EC2",
    "features": [
        "High frequency Intel Xeon E5-2666 v3 (Haswell) processors optimized specifically for EC2",
        "EBS-optimized by default and at no additional cost",
        "Ability to control processor C-state and P-state configuration on the c4.8xlarge instance type",
        "Support for Enhanced Networking and Clustering"
    ]
}
